Prosper Loan Exploratory Data Analysis
…
We can see the mean credit score for all loans is 695 This is considered good credit according to Experiean

300-579 is Very Poor (17% of people) may not be approved for credit at all 580-669 is Fair (20.2%) considered subprime 679-739 is Good (21.5%) 8% liklihood of serious delinquency 740-799 is Very Good (18.2%) likely to receive better than avg rates 800-850 is Exceptional(19.9%) at the top of the list for best rates w lenders

https://www.experian.com/blogs/ask-experian/credit-education/score-basics

Creating labels for each of the categories

Debt consolidation is the highest category with over 50% of the loans

## # A tibble: 21 x 3
##        Category count    catpercs
##          <fctr> <int>       <dbl>
##  1    Debt Cons 58307 0.511770179
##  2           NA 16961 0.148869501
##  3        Other 10494 0.092107573
##  4      HomeImp  7433 0.065240670
##  5          Biz  7189 0.063099042
##  6         Auto  2572 0.022574869
##  7      PerLoan  2395 0.021021311
##  8 HouseholdExp  1996 0.017519222
##  9   Med/Dental  1522 0.013358846
## 10        Taxes   885 0.007767791
## # ... with 11 more rows
…
